65  394  253  147  309  220  
286  335  247  395  176  117  457  263  
213  73  28  358  461  127  419  
439  269  433  20  35  41  430  
144  317  327  155  105  
361  180  278  250  
157  3  234  446  456  224  
14  348  122  24  9  461  396  224  
264  437  57  205  323  316  
110  211  305  107  406  132  400  
428  377  82  185  409  284  302  245  
61  194  148  
188  368  339  32  
238  171  53  
102  12  90  373  
290  225  335  382  332  274  402  354  207  393  137  95  
203  166  206  257  33  415  304  131  
197  98  344  454  424  323  297  
447  387  47  79  204  373  
208  150  141  201  
64  426  162  
