254  11  239  283  211  160  442  411  234  24  
120  53  344  
198  228  325  213  346  416  216  371  
76  
14  181  17  332  164  40  135  169  
154  111  107  202  448  93  186  
278  438  300  148  
47  115  80  196  
385  421  308  281  330  130  247  236  
154  250  288  27  355  60  337  271  
382  29  305  89  293  
243  434  84  
94  359  5  72  
364  159  407  276  419  190  
397  316  173  374  226  345  
404  378  348  394  390  375  236  
405  450  268  41  
118  351  125  430  161  
7  313  34  264  
219  402  178  102  142  
427  98  151  
64  207  426  297  236  387  
36  160  229  320  431  104  45  108  
