162  123  437  
453  256  409  116  313  267  
411  182  348  1  60  175  
468  329  152  6  68  47  442  424  
201  337  305  
176  383  368  33  74  110  318  105  
35  404  362  289  248  
251  198  341  193  
2  155  349  128  28  427  18  431  280  347  359  119  470  
251  85  
377  389  272  43  99  
190  307  458  231  462  364  446  
432  393  397  61  250  57  294  11  141  
133  65  196  372  
88  113  212  49  242  
232  340  296  301  78  
95  228  223  209  466  
397  146  287  93  283  245  451  347  
239  70  22  322  376  
217  418  84  
52  263  126  170  327  238  
143  109  189  86  
